<svg width="80" height="81" viewBox="0 0 80 81" fill="none" xmlns="http://www.w3.org/2000/svg">
<circle cx="40" cy="40.5" r="40" fill="#4589FA"/>
<circle cx="39.9993" cy="40.5" r="18.3333" fill="white"/>
<path d="M40 32.1667V42.1667L44.1667 46.3334" stroke="#4589FA" stroke-width="4" stroke-linecap="round" stroke-linejoin="round"/>
</svg>
